\relax 
\providecommand\hyper@newdestlabel[2]{}
\catcode `"\active 
\catcode `<\active 
\catcode `>\active 
\@nameuse{es@quoting}
\providecommand\HyperFirstAtBeginDocument{\AtBeginDocument}
\HyperFirstAtBeginDocument{\ifx\hyper@anchor\@undefined
\global\let\oldcontentsline\contentsline
\gdef\contentsline#1#2#3#4{\oldcontentsline{#1}{#2}{#3}}
\global\let\oldnewlabel\newlabel
\gdef\newlabel#1#2{\newlabelxx{#1}#2}
\gdef\newlabelxx#1#2#3#4#5#6{\oldnewlabel{#1}{{#2}{#3}}}
\AtEndDocument{\ifx\hyper@anchor\@undefined
\let\contentsline\oldcontentsline
\let\newlabel\oldnewlabel
\fi}
\fi}
\global\let\hyper@last\relax 
\gdef\HyperFirstAtBeginDocument#1{#1}
\providecommand\HyField@AuxAddToFields[1]{}
\providecommand\HyField@AuxAddToCoFields[2]{}
\select@language{spanish}
\@writefile{toc}{\select@language{spanish}}
\@writefile{lof}{\select@language{spanish}}
\@writefile{lot}{\select@language{spanish}}
\@writefile{toc}{\contentsline {section}{Introducci\IeC {\'o}n}{3}{section*.2}}
\@writefile{toc}{\contentsline {section}{\numberline {1}B\IeC {\'u}squeda en cuadriculas}{3}{section.1}}
\@writefile{toc}{\contentsline {subsection}{\numberline {1.1}generateSuccessors}{3}{subsection.1.1}}
\@writefile{toc}{\contentsline {subsection}{\numberline {1.2}calculateHeuristic}{3}{subsection.1.2}}
\@writefile{toc}{\contentsline {subsection}{\numberline {1.3}Resultados}{3}{subsection.1.3}}
\@writefile{toc}{\contentsline {section}{\numberline {2}B\IeC {\'u}squeda en cuadriculas en diagonales}{4}{section.2}}
\@writefile{toc}{\contentsline {subsection}{\numberline {2.1}generateSuccessors}{4}{subsection.2.1}}
\@writefile{toc}{\contentsline {subsection}{\numberline {2.2}calculateHeuristic}{4}{subsection.2.2}}
\@writefile{toc}{\contentsline {subsection}{\numberline {2.3}Resultados}{4}{subsection.2.3}}
\@writefile{toc}{\contentsline {section}{\numberline {3}B\IeC {\'u}squeda jer\IeC {\'a}rquica}{4}{section.3}}
\@writefile{toc}{\contentsline {subsection}{\numberline {3.1}HierarchicalMap}{4}{subsection.3.1}}
\@writefile{toc}{\contentsline {subsection}{\numberline {3.2}generateSuccessors}{5}{subsection.3.2}}
\@writefile{toc}{\contentsline {subsection}{\numberline {3.3}calculateHeuristic}{5}{subsection.3.3}}
\@writefile{toc}{\contentsline {subsection}{\numberline {3.4}search}{5}{subsection.3.4}}
\@writefile{toc}{\contentsline {subsection}{\numberline {3.5}Resultados}{6}{subsection.3.5}}
\@writefile{toc}{\contentsline {section}{\numberline {4}Conclusiones}{6}{section.4}}
\newlabel{LastPage}{{}{6}{}{page.6}{}}
\xdef\lastpage@lastpage{6}
\xdef\lastpage@lastpageHy{6}
